{"file_urls": ["https://www.ibm.com/docs/en/pdf/administering_pdf.pdf"], "files": []}
{"file_urls": ["https://www.ibm.com/support/knowledgecenter/SSGMCP_5.6.0/pdf/administering_pdf.pdf"], "files": []}
{"file_urls": ["https://www.ibm.com/support/knowledgecenter/SSGMCP_5.5.0/pdf/administering_pdf.pdf"], "files": []}
{"file_urls": ["https://www.ibm.com/support/knowledgecenter/SSGMCP_5.4.0/pdf/administering_pdf.pdf"], "files": []}
{"file_urls": ["https://www.ibm.com/docs/en/pdf/api-reference_pdf.pdf"], "files": []}
{"file_urls": ["https://www.ibm.com/support/knowledgecenter/SSGMCP_5.6.0/pdf/api-reference_pdf.pdf"], "files": []}
{"file_urls": ["https://www.ibm.com/support/knowledgecenter/SSGMCP_5.5.0/pdf/api-reference_pdf.pdf"], "files": []}
{"file_urls": ["https://www.ibm.com/support/knowledgecenter/SSGMCP_5.4.0/pdf/api-reference_pdf.pdf"], "files": []}
{"file_urls": ["https://www.ibm.com/support/knowledgecenter/SSGMCP_5.4.0/pdf/bts_pdf.pdf"], "files": []}
{"file_urls": ["https://www.ibm.com/support/knowledgecenter/SSGMCP_5.4.0/pdf/bts_pdf.pdf"], "files": []}
{"file_urls": ["https://www.ibm.com/support/knowledgecenter/SSGMCP_5.4.0/pdf/bts_pdf.pdf"], "files": []}
{"file_urls": ["https://www.ibm.com/support/knowledgecenter/SSGMCP_5.4.0/pdf/bts_pdf.pdf"], "files": []}
{"file_urls": ["https://www.ibm.com/docs/en/pdf/class-libraries_pdf.pdf"], "files": []}
{"file_urls": ["https://www.ibm.com/support/knowledgecenter/SSGMCP_5.6.0/pdf/class-libraries_pdf.pdf"], "files": []}
{"file_urls": ["https://www.ibm.com/support/knowledgecenter/SSGMCP_5.5.0/pdf/class-libraries_pdf.pdf"], "files": []}
{"file_urls": ["https://www.ibm.com/support/knowledgecenter/SSGMCP_5.4.0/pdf/class-libraries_pdf.pdf"], "files": []}
{"file_urls": ["https://www.ibm.com/docs/en/pdf/administering-cpsm_pdf.pdf"], "files": []}
{"file_urls": ["https://www.ibm.com/support/knowledgecenter/SSGMCP_5.6.0/pdf/administering-cpsm_pdf.pdf"], "files": []}
{"file_urls": ["https://www.ibm.com/support/knowledgecenter/SSGMCP_5.5.0/pdf/administering-cpsm_pdf.pdf"], "files": []}
{"file_urls": ["https://www.ibm.com/support/knowledgecenter/SSGMCP_5.4.0/pdf/administering-cpsm_pdf.pdf"], "files": []}
{"file_urls": ["https://www.ibm.com/docs/en/pdf/cpsm-programming_pdf.pdf"], "files": []}
{"file_urls": ["https://www.ibm.com/support/knowledgecenter/SSGMCP_5.6.0/pdf/cpsm-programming_pdf.pdf"], "files": []}
{"file_urls": ["https://www.ibm.com/support/knowledgecenter/SSGMCP_5.5.0/pdf/cpsm-programming_pdf.pdf"], "files": []}
{"file_urls": ["https://www.ibm.com/support/knowledgecenter/SSGMCP_5.4.0/pdf/cpsm-programming_pdf.pdf"], "files": []}
{"file_urls": ["https://www.ibm.com/docs/en/pdf/cpsm-api-reference_pdf.pdf"], "files": []}
{"file_urls": ["https://www.ibm.com/support/knowledgecenter/SSGMCP_5.6.0/pdf/cpsm-api-reference_pdf.pdf"], "files": []}
{"file_urls": ["https://www.ibm.com/support/knowledgecenter/SSGMCP_5.5.0/pdf/cpsm-api-reference_pdf.pdf"], "files": []}
{"file_urls": ["https://www.ibm.com/support/knowledgecenter/SSGMCP_5.4.0/pdf/cpsm-api-reference_pdf.pdf"], "files": []}
{"file_urls": ["https://www.ibm.com/docs/en/pdf/cpsm-cmci-rest-api-reference_pdf.pdf"], "files": []}
{"file_urls": ["https://www.ibm.com/support/knowledgecenter/SSGMCP_5.6.0/pdf/cpsm-cmci-rest-api-reference_pdf.pdf"], "files": []}
{"file_urls": ["https://www.ibm.com/support/knowledgecenter/SSGMCP_5.5.0/pdf/cpsm-cmci-rest-api-reference_pdf.pdf"], "files": []}
{"file_urls": ["https://www.ibm.com/docs/en/pdf/cpsmconceptsandplanning_pdf.pdf"], "files": []}
{"file_urls": ["https://www.ibm.com/support/knowledgecenter/SSGMCP_5.6.0/pdf/cpsmconceptsandplanning_pdf.pdf"], "files": []}
{"file_urls": ["https://www.ibm.com/support/knowledgecenter/SSGMCP_5.5.0/pdf/cpsmconceptsandplanning_pdf.pdf"], "files": []}
{"file_urls": ["https://www.ibm.com/support/knowledgecenter/SSGMCP_5.4.0/pdf/cpsmconceptsandplanning_pdf.pdf"], "files": []}
{"file_urls": ["https://www.ibm.com/docs/en/pdf/cpsm_bas_pdf.pdf"], "files": []}
{"file_urls": ["https://www.ibm.com/support/knowledgecenter/SSGMCP_5.6.0/pdf/cpsm_bas_pdf.pdf"], "files": []}
{"file_urls": ["https://www.ibm.com/support/knowledgecenter/SSGMCP_5.5.0/pdf/cpsm_bas_pdf.pdf"], "files": []}
{"file_urls": ["https://www.ibm.com/support/knowledgecenter/SSGMCP_5.4.0/pdf/cpsm_bas_pdf.pdf"], "files": []}
{"file_urls": ["https://www.ibm.com/support/knowledgecenter/SSGMCP_5.4.0/pdf/cpsm-managing-resource-usage_pdf.pdf"], "files": []}
{"file_urls": ["https://www.ibm.com/support/knowledgecenter/SSGMCP_5.4.0/pdf/cpsm-managing-resource-usage_pdf.pdf"], "files": []}
{"file_urls": ["https://www.ibm.com/support/knowledgecenter/SSGMCP_5.4.0/pdf/cpsm-managing-resource-usage_pdf.pdf"], "files": []}
{"file_urls": ["https://www.ibm.com/support/knowledgecenter/SSGMCP_5.4.0/pdf/cpsm-managing-resource-usage_pdf.pdf"], "files": []}
{"file_urls": ["https://www.ibm.com/docs/en/pdf/cpsm-managing-workloads_pdf.pdf"], "files": []}
{"file_urls": ["https://www.ibm.com/support/knowledgecenter/SSGMCP_5.6.0/pdf/cpsm-managing-workloads_pdf.pdf"], "files": []}
{"file_urls": ["https://www.ibm.com/support/knowledgecenter/SSGMCP_5.5.0/pdf/cpsm-managing-workloads_pdf.pdf"], "files": []}
{"file_urls": ["https://www.ibm.com/support/knowledgecenter/SSGMCP_5.4.0/pdf/cpsm-managing-workloads_pdf.pdf"], "files": []}
{"file_urls": ["https://www.ibm.com/docs/en/pdf/cpsm-messages_pdf.pdf"], "files": []}
{"file_urls": ["https://www.ibm.com/support/knowledgecenter/SSGMCP_5.6.0/pdf/cpsm-messages_pdf.pdf"], "files": []}
{"file_urls": ["https://www.ibm.com/support/knowledgecenter/SSGMCP_5.5.0/pdf/cpsm-messages_pdf.pdf"], "files": []}
{"file_urls": ["https://www.ibm.com/support/knowledgecenter/SSGMCP_5.4.0/pdf/cpsm-messages_pdf.pdf"], "files": []}
{"file_urls": ["https://www.ibm.com/docs/en/pdf/cpsm-monitor-views_pdf.pdf"], "files": []}
{"file_urls": ["https://www.ibm.com/support/knowledgecenter/SSGMCP_5.6.0/pdf/cpsm-monitor-views_pdf.pdf"], "files": []}
{"file_urls": ["https://www.ibm.com/support/knowledgecenter/SSGMCP_5.5.0/pdf/cpsm-monitor-views_pdf.pdf"], "files": []}
{"file_urls": ["https://www.ibm.com/support/knowledgecenter/SSGMCP_5.4.0/pdf/cpsm-monitor-views_pdf.pdf"], "files": []}
{"file_urls": ["https://www.ibm.com/docs/en/pdf/cpsm-operations-views_pdf.pdf"], "files": []}
{"file_urls": ["https://www.ibm.com/support/knowledgecenter/SSGMCP_5.6.0/pdf/cpsm-operations-views_pdf.pdf"], "files": []}
{"file_urls": ["https://www.ibm.com/support/knowledgecenter/SSGMCP_5.5.0/pdf/cpsm-operations-views_pdf.pdf"], "files": []}
{"file_urls": ["https://www.ibm.com/support/knowledgecenter/SSGMCP_5.4.0/pdf/cpsm-operations-views_pdf.pdf"], "files": []}
{"file_urls": ["https://www.ibm.com/docs/en/pdf/troubleshooting-cpsm_pdf.pdf"], "files": []}
{"file_urls": ["https://www.ibm.com/support/knowledgecenter/SSGMCP_5.6.0/pdf/troubleshooting-cpsm_pdf.pdf"], "files": []}
{"file_urls": ["https://www.ibm.com/support/knowledgecenter/SSGMCP_5.5.0/pdf/troubleshooting-cpsm_pdf.pdf"], "files": []}
{"file_urls": ["https://www.ibm.com/support/knowledgecenter/SSGMCP_5.4.0/pdf/troubleshooting-cpsm_pdf.pdf"], "files": []}
{"file_urls": ["https://www.ibm.com/docs/en/pdf/cpsm-resource-tables_pdf.pdf"], "files": []}
{"file_urls": ["https://www.ibm.com/support/knowledgecenter/SSGMCP_5.6.0/pdf/cpsm-resource-tables_pdf.pdf"], "files": []}
{"file_urls": ["https://www.ibm.com/support/knowledgecenter/SSGMCP_5.5.0/pdf/cpsm-resource-tables_pdf.pdf"], "files": []}
{"file_urls": ["https://www.ibm.com/support/knowledgecenter/SSGMCP_5.4.0/pdf/cpsm-resource-tables_pdf.pdf"], "files": []}
{"file_urls": ["https://www.ibm.com/support/knowledgecenter/SSGMCP_5.4.0/pdf/cpsm-wui_pdf.pdf"], "files": []}
{"file_urls": ["https://www.ibm.com/support/knowledgecenter/SSGMCP_5.4.0/pdf/cpsm-wui_pdf.pdf"], "files": []}
{"file_urls": ["https://www.ibm.com/support/knowledgecenter/SSGMCP_5.4.0/pdf/cpsm-wui_pdf.pdf"], "files": []}
{"file_urls": ["https://www.ibm.com/support/knowledgecenter/SSGMCP_5.4.0/pdf/cpsm-wui_pdf.pdf"], "files": []}
{"file_urls": ["https://www.ibm.com/docs/en/pdf/cics-codes_pdf.pdf"], "files": []}
{"file_urls": ["https://www.ibm.com/support/knowledgecenter/SSGMCP_5.6.0/pdf/cics-codes_pdf.pdf"], "files": []}
{"file_urls": ["https://www.ibm.com/support/knowledgecenter/SSGMCP_5.5.0/pdf/cics-codes_pdf.pdf"], "files": []}
{"file_urls": ["https://www.ibm.com/support/knowledgecenter/SSGMCP_5.4.0/pdf/cics-codes_pdf.pdf"], "files": []}
{"file_urls": ["https://www.ibm.com/docs/en/pdf/configuring_pdf.pdf"], "files": []}
{"file_urls": ["https://www.ibm.com/support/knowledgecenter/SSGMCP_5.6.0/pdf/configuring_pdf.pdf"], "files": []}
{"file_urls": ["https://www.ibm.com/support/knowledgecenter/SSGMCP_5.5.0/pdf/configuring_pdf.pdf"], "files": []}
{"file_urls": ["https://www.ibm.com/support/knowledgecenter/SSGMCP_5.4.0/pdf/configuring_pdf.pdf"], "files": []}
{"file_urls": ["https://www.ibm.com/docs/en/pdf/data-areas_pdf.pdf"], "files": []}
{"file_urls": ["https://www.ibm.com/support/knowledgecenter/SSGMCP_5.6.0/pdf/data-areas_pdf.pdf"], "files": []}
{"file_urls": ["https://www.ibm.com/support/knowledgecenter/SSGMCP_5.5.0/pdf/data-areas_pdf.pdf"], "files": []}
{"file_urls": ["https://www.ibm.com/support/knowledgecenter/SSGMCP_5.4.0/pdf/data-areas_pdf.pdf"], "files": []}
{"file_urls": ["https://www.ibm.com/docs/en/pdf/db2_pdf.pdf"], "files": []}
{"file_urls": ["https://www.ibm.com/support/knowledgecenter/SSGMCP_5.6.0/pdf/db2_pdf.pdf"], "files": []}
{"file_urls": ["https://www.ibm.com/support/knowledgecenter/SSGMCP_5.5.0/pdf/db2_pdf.pdf"], "files": []}
{"file_urls": ["https://www.ibm.com/support/knowledgecenter/SSGMCP_5.4.0/pdf/db2_pdf.pdf"], "files": []}
{"file_urls": ["https://www.ibm.com/support/knowledgecenter/SSGMCP_5.4.0/pdf/debug-tools-reference_pdf.pdf"], "files": []}
{"file_urls": ["https://www.ibm.com/support/knowledgecenter/SSGMCP_5.4.0/pdf/debug-tools-reference_pdf.pdf"], "files": []}
{"file_urls": ["https://www.ibm.com/support/knowledgecenter/SSGMCP_5.4.0/pdf/debug-tools-reference_pdf.pdf"], "files": []}
{"file_urls": ["https://www.ibm.com/support/knowledgecenter/SSGMCP_5.4.0/pdf/debug-tools-reference_pdf.pdf"], "files": []}
{"file_urls": ["https://www.ibm.com/support/knowledgecenter/SSGMCP_5.4.0/pdf/administering_pdf.pdf"], "files": []}
{"file_urls": ["https://www.ibm.com/docs/en/pdf/application-programming_pdf.pdf"], "files": []}
{"file_urls": ["https://www.ibm.com/support/knowledgecenter/SSGMCP_5.6.0/pdf/application-programming_pdf.pdf"], "files": []}
{"file_urls": ["https://www.ibm.com/support/knowledgecenter/SSGMCP_5.5.0/pdf/application-programming_pdf.pdf"], "files": []}
{"file_urls": ["https://www.ibm.com/support/knowledgecenter/SSGMCP_5.4.0/pdf/application-programming_pdf.pdf"], "files": []}
{"file_urls": ["https://www.ibm.com/docs/en/pdf/customization-guide_pdf.pdf"], "files": []}
{"file_urls": ["https://www.ibm.com/support/knowledgecenter/SSGMCP_5.6.0/pdf/customization-guide_pdf.pdf"], "files": []}
{"file_urls": ["https://www.ibm.com/support/knowledgecenter/SSGMCP_5.5.0/pdf/customization-guide_pdf.pdf"], "files": []}
{"file_urls": ["https://www.ibm.com/support/knowledgecenter/SSGMCP_5.4.0/pdf/customization-guide_pdf.pdf"], "files": []}
{"file_urls": ["https://www.ibm.com/support/knowledgecenter/SSGMCP_5.4.0/pdf/diagnosis-reference_pdf.pdf"], "files": []}
{"file_urls": ["https://www.ibm.com/support/knowledgecenter/SSGMCP_5.4.0/pdf/diagnosis-reference_pdf.pdf"], "files": []}
{"file_urls": ["https://www.ibm.com/support/knowledgecenter/SSGMCP_5.4.0/pdf/diagnosis-reference_pdf.pdf"], "files": []}
{"file_urls": ["https://www.ibm.com/support/knowledgecenter/SSGMCP_5.4.0/pdf/diagnosis-reference_pdf.pdf"], "files": []}
{"file_urls": ["https://www.ibm.com/support/knowledgecenter/SSGMCP_5.4.0/pdf/distributed-transaction-programming_pdf.pdf"], "files": []}
{"file_urls": ["https://www.ibm.com/support/knowledgecenter/SSGMCP_5.4.0/pdf/distributed-transaction-programming_pdf.pdf"], "files": []}
{"file_urls": ["https://www.ibm.com/support/knowledgecenter/SSGMCP_5.4.0/pdf/distributed-transaction-programming_pdf.pdf"], "files": []}
{"file_urls": ["https://www.ibm.com/support/knowledgecenter/SSGMCP_5.4.0/pdf/distributed-transaction-programming_pdf.pdf"], "files": []}
{"file_urls": ["https://www.ibm.com/support/knowledgecenter/SSGMCP_5.4.0/pdf/external-interfaces_pdf.pdf"], "files": []}
{"file_urls": ["https://www.ibm.com/support/knowledgecenter/SSGMCP_5.4.0/pdf/external-interfaces_pdf.pdf"], "files": []}
{"file_urls": ["https://www.ibm.com/support/knowledgecenter/SSGMCP_5.4.0/pdf/external-interfaces_pdf.pdf"], "files": []}
{"file_urls": ["https://www.ibm.com/support/knowledgecenter/SSGMCP_5.4.0/pdf/external-interfaces_pdf.pdf"], "files": []}
{"file_urls": ["https://www.ibm.com/support/knowledgecenter/SSGMCP_5.4.0/pdf/exci_pdf.pdf"], "files": []}
{"file_urls": ["https://www.ibm.com/support/knowledgecenter/SSGMCP_5.4.0/pdf/fepi_pdf.pdf"], "files": []}
{"file_urls": ["https://www.ibm.com/support/knowledgecenter/SSGMCP_5.4.0/pdf/fepi_pdf.pdf"], "files": []}
{"file_urls": ["https://www.ibm.com/support/knowledgecenter/SSGMCP_5.4.0/pdf/fepi_pdf.pdf"], "files": []}
{"file_urls": ["https://www.ibm.com/support/knowledgecenter/SSGMCP_5.4.0/pdf/fepi_pdf.pdf"], "files": []}
{"file_urls": ["https://www.ibm.com/support/knowledgecenter/SSGMCP_5.4.0/pdf/exci_pdf.pdf"], "files": []}
{"file_urls": ["https://www.ibm.com/docs/en/pdf/glue-reference_pdf.pdf"], "files": []}
{"file_urls": ["https://www.ibm.com/support/knowledgecenter/SSGMCP_5.6.0/pdf/glue-reference_pdf.pdf"], "files": []}
{"file_urls": ["https://www.ibm.com/support/knowledgecenter/SSGMCP_5.5.0/pdf/glue-reference_pdf.pdf"], "files": []}
{"file_urls": ["https://www.ibm.com/support/knowledgecenter/SSGMCP_5.4.0/pdf/glue-reference_pdf.pdf"], "files": []}
{"file_urls": ["https://www.ibm.com/docs/en/pdf/database-control_pdf.pdf"], "files": []}
{"file_urls": ["https://www.ibm.com/support/knowledgecenter/SSGMCP_5.6.0/pdf/database-control_pdf.pdf"], "files": []}
{"file_urls": ["https://www.ibm.com/support/knowledgecenter/SSGMCP_5.5.0/pdf/database-control_pdf.pdf"], "files": []}
{"file_urls": ["https://www.ibm.com/support/knowledgecenter/SSGMCP_5.4.0/pdf/database-control_pdf.pdf"], "files": []}
{"file_urls": ["https://www.ibm.com/docs/en/pdf/installation-guide_pdf.pdf"], "files": []}
{"file_urls": ["https://www.ibm.com/support/knowledgecenter/SSGMCP_5.6.0/pdf/installation-guide_pdf.pdf"], "files": []}
{"file_urls": ["https://www.ibm.com/support/knowledgecenter/SSGMCP_5.5.0/pdf/installation-guide_pdf.pdf"], "files": []}
{"file_urls": ["https://www.ibm.com/support/knowledgecenter/SSGMCP_5.4.0/pdf/installation-guide_pdf.pdf"], "files": []}
{"file_urls": ["https://www.ibm.com/docs/en/pdf/intercommunication_pdf.pdf"], "files": []}
{"file_urls": ["https://www.ibm.com/support/knowledgecenter/SSGMCP_5.6.0/pdf/intercommunication_pdf.pdf"], "files": []}
{"file_urls": ["https://www.ibm.com/support/knowledgecenter/SSGMCP_5.5.0/pdf/intercommunication_pdf.pdf"], "files": []}
{"file_urls": ["https://www.ibm.com/support/knowledgecenter/SSGMCP_5.4.0/pdf/intercommunication_pdf.pdf"], "files": []}
{"file_urls": ["https://www.ibm.com/support/knowledgecenter/SSGMCP_5.4.0/pdf/internet-guide_pdf.pdf"], "files": []}
{"file_urls": ["https://www.ibm.com/support/knowledgecenter/SSGMCP_5.4.0/pdf/internet-guide_pdf.pdf"], "files": []}
{"file_urls": ["https://www.ibm.com/support/knowledgecenter/SSGMCP_5.4.0/pdf/internet-guide_pdf.pdf"], "files": []}
{"file_urls": ["https://www.ibm.com/support/knowledgecenter/SSGMCP_5.4.0/pdf/internet-guide_pdf.pdf"], "files": []}
{"file_urls": ["https://www.ibm.com/docs/en/pdf/java-applications_pdf.pdf"], "files": []}
{"file_urls": ["https://www.ibm.com/support/knowledgecenter/SSGMCP_5.6.0/pdf/java-applications_pdf.pdf"], "files": []}
{"file_urls": ["https://www.ibm.com/support/knowledgecenter/SSGMCP_5.5.0/pdf/java-applications_pdf.pdf"], "files": []}
{"file_urls": ["https://www.ibm.com/support/knowledgecenter/SSGMCP_5.4.0/pdf/java-applications_pdf.pdf"], "files": []}
{"file_urls": ["https://www.ibm.com/docs/en/pdf/cics-messages_pdf.pdf"], "files": []}
{"file_urls": ["https://www.ibm.com/support/knowledgecenter/SSGMCP_5.6.0/pdf/cics-messages_pdf.pdf"], "files": []}
{"file_urls": ["https://www.ibm.com/support/knowledgecenter/SSGMCP_5.5.0/pdf/cics-messages_pdf.pdf"], "files": []}
{"file_urls": ["https://www.ibm.com/support/knowledgecenter/SSGMCP_5.4.0/pdf/cics-messages_pdf.pdf"], "files": []}
{"file_urls": ["https://www.ibm.com/docs/en/pdf/monitoring-reference_pdf.pdf"], "files": []}
{"file_urls": ["https://www.ibm.com/support/knowledgecenter/SSGMCP_5.6.0/pdf/monitoring-reference_pdf.pdf"], "files": []}
{"file_urls": ["https://www.ibm.com/support/knowledgecenter/SSGMCP_5.5.0/pdf/monitoring-reference_pdf.pdf"], "files": []}
{"file_urls": ["https://www.ibm.com/support/knowledgecenter/SSGMCP_5.4.0/pdf/monitoring-reference_pdf.pdf"], "files": []}
{"file_urls": ["https://www.ibm.com/support/knowledgecenter/SSGMCP_5.4.0/pdf/monitoring-reference_pdf.pdf"], "files": []}
{"file_urls": ["https://www.ibm.com/docs/en/pdf/performance_pdf.pdf"], "files": []}
{"file_urls": ["https://www.ibm.com/support/knowledgecenter/SSGMCP_5.6.0/pdf/performance_pdf.pdf"], "files": []}
{"file_urls": ["https://www.ibm.com/support/knowledgecenter/SSGMCP_5.5.0/pdf/performance_pdf.pdf"], "files": []}
{"file_urls": ["https://www.ibm.com/support/knowledgecenter/SSGMCP_5.4.0/pdf/performance_pdf.pdf"], "files": []}
{"file_urls": ["https://www.ibm.com/support/knowledgecenter/SSGMCP_5.4.0/pdf/statistics-reference_pdf.pdf"], "files": []}
{"file_urls": ["https://www.ibm.com/support/knowledgecenter/SSGMCP_5.4.0/pdf/statistics-reference_pdf.pdf"], "files": []}
{"file_urls": ["https://www.ibm.com/docs/en/pdf/performance-report_pdf.pdf"], "files": []}
{"file_urls": ["https://www.ibm.com/docs/en/pdf/performance-report_pdf.pdf"], "files": []}
{"file_urls": ["https://www.ibm.com/docs/en/pdf/security-guide_pdf.pdf"], "files": []}
{"file_urls": ["https://www.ibm.com/support/knowledgecenter/SSGMCP_5.6.0/pdf/security-guide_pdf.pdf"], "files": []}
{"file_urls": ["https://www.ibm.com/support/knowledgecenter/SSGMCP_5.5.0/pdf/security-guide_pdf.pdf"], "files": []}
{"file_urls": ["https://www.ibm.com/support/knowledgecenter/SSGMCP_5.4.0/pdf/security-guide_pdf.pdf"], "files": []}
{"file_urls": ["https://www.ibm.com/docs/en/pdf/resource-reference_pdf.pdf"], "files": []}
{"file_urls": ["https://www.ibm.com/support/knowledgecenter/SSGMCP_5.6.0/pdf/resource-reference_pdf.pdf"], "files": []}
{"file_urls": ["https://www.ibm.com/support/knowledgecenter/SSGMCP_5.5.0/pdf/resource-reference_pdf.pdf"], "files": []}
{"file_urls": ["https://www.ibm.com/support/knowledgecenter/SSGMCP_5.4.0/pdf/resource-reference_pdf.pdf"], "files": []}
{"file_urls": ["https://www.ibm.com/docs/en/pdf/rexx-userguide-reference_pdf.pdf"], "files": []}
{"file_urls": ["https://www.ibm.com/docs/en/pdf/rexx-userguide-reference_pdf.pdf"], "files": []}
{"file_urls": ["https://www.ibm.com/docs/en/pdf/rexx-userguide-reference_pdf.pdf"], "files": []}
{"file_urls": ["https://www.ibm.com/docs/en/pdf/shared-data-tables_pdf.pdf"], "files": []}
{"file_urls": ["https://www.ibm.com/support/knowledgecenter/SSGMCP_5.6.0/pdf/shared-data-tables_pdf.pdf"], "files": []}
{"file_urls": ["https://www.ibm.com/support/knowledgecenter/SSGMCP_5.5.0/pdf/shared-data-tables_pdf.pdf"], "files": []}
{"file_urls": ["https://www.ibm.com/support/knowledgecenter/SSGMCP_5.4.0/pdf/shared-data-tables_pdf.pdf"], "files": []}
{"file_urls": ["https://www.ibm.com/docs/en/pdf/statistics-reference_pdf.pdf"], "files": []}
{"file_urls": ["https://www.ibm.com/support/knowledgecenter/SSGMCP_5.6.0/pdf/statistics-reference_pdf.pdf"], "files": []}
{"file_urls": ["https://www.ibm.com/support/knowledgecenter/SSGMCP_5.5.0/pdf/statistics-reference_pdf.pdf"], "files": []}
{"file_urls": ["https://www.ibm.com/docs/en/pdf/transactions-reference_pdf.pdf"], "files": []}
{"file_urls": ["https://www.ibm.com/support/knowledgecenter/SSGMCP_5.6.0/pdf/transactions-reference_pdf.pdf"], "files": []}
{"file_urls": ["https://www.ibm.com/support/knowledgecenter/SSGMCP_5.5.0/pdf/transactions-reference_pdf.pdf"], "files": []}
{"file_urls": ["https://www.ibm.com/support/knowledgecenter/SSGMCP_5.4.0/pdf/transactions-reference_pdf.pdf"], "files": []}
{"file_urls": ["https://www.ibm.com/docs/en/pdf/sit-reference_pdf.pdf"], "files": []}
{"file_urls": ["https://www.ibm.com/support/knowledgecenter/SSGMCP_5.6.0/pdf/sit-reference_pdf.pdf"], "files": []}
{"file_urls": ["https://www.ibm.com/support/knowledgecenter/SSGMCP_5.5.0/pdf/sit-reference_pdf.pdf"], "files": []}
{"file_urls": ["https://www.ibm.com/support/knowledgecenter/SSGMCP_5.4.0/pdf/sit-reference_pdf.pdf"], "files": []}
{"file_urls": ["https://www.ibm.com/docs/en/pdf/systemprogramming-reference_pdf.pdf"], "files": []}
{"file_urls": ["https://www.ibm.com/support/knowledgecenter/SSGMCP_5.6.0/pdf/systemprogramming-reference_pdf.pdf"], "files": []}
{"file_urls": ["https://www.ibm.com/support/knowledgecenter/SSGMCP_5.5.0/pdf/systemprogramming-reference_pdf.pdf"], "files": []}
{"file_urls": ["https://www.ibm.com/support/knowledgecenter/SSGMCP_5.4.0/pdf/systemprogramming-reference_pdf.pdf"], "files": []}
{"file_urls": ["https://www.ibm.com/support/knowledgecenter/SSGMCP_5.4.0/pdf/trace-entries_pdf.pdf"], "files": []}
{"file_urls": ["https://www.ibm.com/support/knowledgecenter/SSGMCP_5.4.0/pdf/trace-entries_pdf.pdf"], "files": []}
{"file_urls": ["https://www.ibm.com/support/knowledgecenter/SSGMCP_5.4.0/pdf/trace-entries_pdf.pdf"], "files": []}
{"file_urls": ["https://www.ibm.com/support/knowledgecenter/SSGMCP_5.4.0/pdf/trace-entries_pdf.pdf"], "files": []}
{"file_urls": ["https://www.ibm.com/docs/en/pdf/troubleshooting-guide_pdf.pdf"], "files": []}
{"file_urls": ["https://www.ibm.com/support/knowledgecenter/SSGMCP_5.6.0/pdf/troubleshooting-guide_pdf.pdf"], "files": []}
{"file_urls": ["https://www.ibm.com/support/knowledgecenter/SSGMCP_5.5.0/pdf/troubleshooting-guide_pdf.pdf"], "files": []}
{"file_urls": ["https://www.ibm.com/support/knowledgecenter/SSGMCP_5.4.0/pdf/troubleshooting-guide_pdf.pdf"], "files": []}
{"file_urls": ["https://www.ibm.com/docs/en/pdf/upgrading_pdf.pdf"], "files": []}
{"file_urls": ["https://www.ibm.com/docs/en/pdf/upgrading_pdf.pdf"], "files": []}
{"file_urls": ["https://www.ibm.com/docs/en/pdf/upgrading_pdf.pdf"], "files": []}
{"file_urls": ["https://www.ibm.com/docs/en/pdf/upgrading_pdf.pdf"], "files": []}
{"file_urls": ["https://www.ibm.com/support/knowledgecenter/SSGMCP_5.6.0/pdf/sfr_pdf.pdf"], "files": []}
{"file_urls": ["https://www.ibm.com/support/knowledgecenter/SSGMCP_5.6.0/pdf/sfr_pdf.pdf"], "files": []}
{"file_urls": ["https://www.ibm.com/support/knowledgecenter/SSGMCP_5.5.0/pdf/sfr_pdf.pdf"], "files": []}
{"file_urls": ["https://www.ibm.com/docs/en/pdf/exci_pdf.pdf"], "files": []}
{"file_urls": ["https://www.ibm.com/support/knowledgecenter/SSGMCP_5.6.0/pdf/exci_pdf.pdf"], "files": []}
{"file_urls": ["https://www.ibm.com/support/knowledgecenter/SSGMCP_5.5.0/pdf/exci_pdf.pdf"], "files": []}
{"file_urls": ["https://www.ibm.com/docs/en/pdf/cics-mq_pdf.pdf"], "files": []}
{"file_urls": ["https://www.ibm.com/support/knowledgecenter/SSGMCP_5.6.0/pdf/cics-mq_pdf.pdf"], "files": []}
{"file_urls": ["https://www.ibm.com/support/knowledgecenter/SSGMCP_5.5.0/pdf/cics-mq_pdf.pdf"], "files": []}
{"file_urls": ["https://www.ibm.com/docs/en/pdf/node-applications_pdf.pdf"], "files": []}
{"file_urls": ["https://www.ibm.com/support/knowledgecenter/SSGMCP_5.6.0/pdf/node-applications_pdf.pdf"], "files": []}
{"file_urls": ["https://www.ibm.com/support/knowledgecenter/SSGMCP_5.5.0/pdf/node-applications_pdf.pdf"], "files": []}
{"file_urls": ["https://www.ibm.com/docs/en/pdf/utilities-reference_pdf.pdf"], "files": []}
{"file_urls": ["https://www.ibm.com/support/knowledgecenter/SSGMCP_5.6.0/pdf/utilities-reference_pdf.pdf"], "files": []}
{"file_urls": ["https://www.ibm.com/support/knowledgecenter/SSGMCP_5.5.0/pdf/utilities-reference_pdf.pdf"], "files": []}
{"file_urls": ["https://www.ibm.com/support/knowledgecenter/SSGMCP_5.4.0/pdf/utilities-reference_pdf.pdf"], "files": []}
{"file_urls": ["https://www.ibm.com/docs/en/pdf/web-services_pdf.pdf"], "files": []}
{"file_urls": ["https://www.ibm.com/support/knowledgecenter/SSGMCP_5.6.0/pdf/web-services_pdf.pdf"], "files": []}
{"file_urls": ["https://www.ibm.com/support/knowledgecenter/SSGMCP_5.5.0/pdf/web-services_pdf.pdf"], "files": []}
{"file_urls": ["https://www.ibm.com/support/knowledgecenter/SSGMCP_5.4.0/pdf/web-services_pdf.pdf"], "files": []}
{"file_urls": ["https://www.ibm.com/docs/en/pdf/whatsnew_pdf.pdf"], "files": []}
{"file_urls": ["https://www.ibm.com/support/knowledgecenter/SSGMCP_5.6.0/pdf/whatsnew_pdf.pdf"], "files": []}
{"file_urls": ["https://www.ibm.com/support/knowledgecenter/SSGMCP_5.5.0/pdf/whatsnew_pdf.pdf"], "files": []}
{"file_urls": ["https://www.ibm.com/support/knowledgecenter/SSGMCP_5.4.0/pdf/whatsnew_pdf.pdf"], "files": []}
{"file_urls": ["https://www.ibm.com/docs/en/pdf/xpi-reference_pdf.pdf"], "files": []}
{"file_urls": ["https://www.ibm.com/support/knowledgecenter/SSGMCP_5.6.0/pdf/xpi-reference_pdf.pdf"], "files": []}
{"file_urls": ["https://www.ibm.com/support/knowledgecenter/SSGMCP_5.5.0/pdf/xpi-reference_pdf.pdf"], "files": []}
{"file_urls": ["https://www.ibm.com/support/knowledgecenter/SSGMCP_5.4.0/pdf/xpi-reference_pdf.pdf"], "files": []}
